Comparações bubbleSort = 101442 

Matriculas Ordenadas 
----------------------------------------- 
2107542;
2114901;
3101224;
3101227;
3101236;
4101358;
5101142;
5101145;
5101148;
5101153;
5101158;
5101164;
5101168;
5101641;
5101642;
5101645;
5101646;
5101647;
5101648;
5101649;
5101650;
5101651;
6101322;
6101324;
6101325;
6101330;
6101332;
6101336;
6101338;
6101339;
6101341;
6101342;
6101344;
6101346;
6101348;
6101349;
6101351;
6101898;
6101899;
6101901;
6101902;
6102126;
6107801;
6107830;
7101154;
7101159;
7101160;
7101163;
7101165;
7101168;
7101169;
7101170;
7101171;
7101173;
7101767;
7103281;
7103283;
7107781;
7107784;
7107786;
7107787;
7107791;
7107796;
7107801;
7107804;
7107808;
7107810;
7107812;
7109892;
7109894;
7109895;
8101256;
8101257;
8101258;
8101263;
8101266;
8101268;
8101270;
8101274;
8101281;
8101282;
8101283;
8101285;
8101286;
8101288;
8101904;
8102074;
8102075;
8102078;
8102080;
8102083;
8102090;
8102091;
8102307;
8102313;
8200583;
8200587;
8200588;
8200591;
8200593;
8200594;
8200595;
8200596;
8200597;
8200600;
8200601;
8200602;
8200603;
8200605;
8200606;
8200609;
8200610;
8200611;
8200612;
8200614;
8200615;
8200616;
8200617;
8200618;
8200620;
8201000;
8201484;
8201486;
8201488;
8201491;
8201510;
8201512;
8201515;
8201548;
8201549;
8201582;
8201651;
8201652;
8201653;
8201655;
8201657;
9101398;
9101399;
9101400;
9101402;
9101404;
9101405;
9101407;
9101408;
9101409;
9101410;
9101412;
9101414;
9101415;
9101416;
9101417;
9101419;
9101420;
9101421;
9101422;
9101424;
9101426;
9101427;
9101428;
9101431;
9101433;
9101436;
9101437;
9102090;
9102091;
9102305;
9102306;
9102307;
9102308;
9102309;
9103501;
9103502;
9103506;
9103517;
9103519;
9103522;
9103523;
9103549;
9103550;
9103595;
9103609;
9103641;
9103753;
9103754;
9200612;
9200617;
9200618;
9200619;
9200621;
9200622;
9200624;
9200625;
9200626;
9200628;
9200629;
9200630;
9200632;
9200633;
9200634;
9200635;
9200637;
9200638;
9200639;
9200641;
9200642;
9200644;
9200645;
9200646;
9200647;
9200648;
9201505;
9201703;
9201704;
9201705;
9201973;
9201974;
9201975;
9202051;
10102038;
10102042;
10102046;
10102053;
10102054;
10102055;
10102059;
10102062;
10102064;
10102067;
10102068;
10102071;
10102073;
10102075;
10102077;
10102083;
10102086;
10102087;
10102091;
10102092;
10102097;
10102098;
10102099;
10102100;
10102101;
10102102;
10102107;
10102111;
10102113;
10102114;
10102116;
10102119;
10102120;
10102125;
10102127;
10102135;
10102139;
10102140;
10102157;
10102166;
10105141;
10105142;
10105143;
10105144;
10105169;
10105197;
10105238;
10105394;
10105398;
10202095;
10202103;
10202108;
10202112;
10202117;
10202118;
10202123;
10202126;
10202134;
10202142;
10202143;
10202144;
10202148;
10202149;
10202152;
10202159;
10202161;
10202164;
10202240;
10202241;
10202247;
10202249;
10202250;
10202256;
10202264;
10202266;
10202267;
10202270;
10202271;
10202272;
10202273;
10202277;
10202278;
10202285;
10202289;
10203243;
10203298;
10203299;
10203300;
10203301;
10203302;
10205473;
10205474;
10205475;
10205512;
10205513;
10205514;
10206132;
10206133;
10206135;
10206136;
10206148;
